\relax 
\@writefile{toc}{\select@language{magyar} \contentsline {chapter}{\numberline {4}\"Osszefoglal\'as}{45}\protected@file@percent }
\@writefile{lof}{\select@language{magyar} \addvspace {10\p@ }}
\@writefile{lot}{\select@language{magyar} \addvspace {10\p@ }}
\newlabel{Chap:osszefoglalas}{{4}{45}}
\@setckpt{osszefoglalas/osszefoglalas}{
\setcounter{page}{46}
\setcounter{equation}{0}
\setcounter{enumi}{0}
\setcounter{enumii}{0}
\setcounter{enumiii}{0}
\setcounter{enumiv}{0}
\setcounter{footnote}{0}
\setcounter{mpfootnote}{0}
\setcounter{part}{0}
\setcounter{chapter}{4}
\setcounter{section}{0}
\setcounter{subsection}{0}
\setcounter{subsubsection}{0}
\setcounter{paragraph}{0}
\setcounter{subparagraph}{0}
\setcounter{figure}{0}
\setcounter{table}{0}
\setcounter{parentequation}{0}
\setcounter{footnote@add}{0}
\setcounter{footnote@ch}{0}
\setcounter{theorem}{0}
\setcounter{prooF}{0}
}
