\relax 
\catcode \string ``=12
\providecommand\babel@aux[2]{}
\@nameuse{bbl@beforestart}
\@input{cimlap/cimlap.aux}
\@input{feladatkiiras/feladatkiiras.aux}
\@input{fejezetek/bevezetes.aux}
\@input{fejezetek/elmelet.aux}
\@input{fejezetek/dokumentacio.aux}
\@input{osszefoglalas/osszefoglalas.aux}
\@input{irodalomjegyzek/irod_jegyzek.aux}
\@input{hasznalat/hasznalat.aux}
