\relax 
\@writefile{toc}{\select@language{magyar} \contentsline {chapter}{\numberline {3}Fejleszt\H oi dokument\'aci\'o}{16}\protected@file@percent }
\@writefile{lof}{\select@language{magyar} \addvspace {10\p@ }}
\@writefile{lot}{\select@language{magyar} \addvspace {10\p@ }}
\newlabel{Chap:dokumen}{{3}{16}}
\@writefile{toc}{\select@language{magyar} \contentsline {section}{\numberline {3.1}Koncepci\'o, el\H ok\'esz\"uletek}{16}\protected@file@percent }
\@writefile{toc}{\select@language{magyar} \contentsline {section}{\numberline {3.2}Programspecifik\'aci\'o}{17}\protected@file@percent }
\@writefile{toc}{\select@language{magyar} \contentsline {subsection}{\numberline {3.2.1}Adatfeldolgoz\'as}{17}\protected@file@percent }
\@writefile{toc}{\select@language{magyar} \contentsline {subsubsection}{Bemen\H o adatok}{17}\protected@file@percent }
\@writefile{toc}{\select@language{magyar} \contentsline {subsubsection}{Kimen\H o adatok}{18}\protected@file@percent }
\@writefile{toc}{\select@language{magyar} \contentsline {subsection}{\numberline {3.2.2}K\'eperny\H otervek}{18}\protected@file@percent }
\@writefile{lof}{\select@language{magyar} \contentsline {figure}{\numberline {3.1}{\ignorespaces Webalkalmaz\'as sz\IeC {\'\i }nsk\'al\'aja}}{18}\protected@file@percent }
\newlabel{fig:cimer}{{3.1}{18}}
\@writefile{toc}{\select@language{magyar} \contentsline {subsubsection}{Log\'o}{18}\protected@file@percent }
\@writefile{lof}{\select@language{magyar} \contentsline {figure}{\numberline {3.2}{\ignorespaces Diner Boss log\'ok, vertik\'alis, horizont\'alis}}{19}\protected@file@percent }
\newlabel{fig:cimer}{{3.2}{19}}
\@writefile{toc}{\select@language{magyar} \contentsline {subsubsection}{Tervezett oldalak, s\'em\'ak}{19}\protected@file@percent }
\@writefile{lof}{\select@language{magyar} \contentsline {figure}{\numberline {3.3}{\ignorespaces F\H ooldal k\'eperny\H oterve}}{20}\protected@file@percent }
\newlabel{fig:cimer}{{3.3}{20}}
\@writefile{lof}{\select@language{magyar} \contentsline {figure}{\numberline {3.4}{\ignorespaces Megrendelt szoftver k\'eperny\H oterve}}{20}\protected@file@percent }
\newlabel{fig:cimer}{{3.4}{20}}
\@writefile{toc}{\select@language{magyar} \contentsline {subsection}{\numberline {3.2.3}Adatszerkezetek}{21}\protected@file@percent }
\@writefile{lof}{\select@language{magyar} \contentsline {figure}{\numberline {3.5}{\ignorespaces ER modell}}{21}\protected@file@percent }
\newlabel{fig:cimer}{{3.5}{21}}
\@writefile{toc}{\select@language{magyar} \contentsline {subsection}{\numberline {3.2.4}Tervezett funkci\'ok}{22}\protected@file@percent }
\@writefile{lof}{\select@language{magyar} \contentsline {figure}{\numberline {3.6}{\ignorespaces USE CASE diagram}}{23}\protected@file@percent }
\newlabel{fig:cimer}{{3.6}{23}}
\@writefile{lof}{\select@language{magyar} \contentsline {figure}{\numberline {3.7}{\ignorespaces UML modell}}{24}\protected@file@percent }
\newlabel{fig:cimer}{{3.7}{24}}
\@writefile{toc}{\select@language{magyar} \contentsline {subsection}{\numberline {3.2.5}Hardver k\"ovetelm\'enyek}{24}\protected@file@percent }
\@writefile{toc}{\select@language{magyar} \contentsline {section}{\numberline {3.3}Fejleszt\H oeszk\"oz\"ok, k\"ornyezet kiv\'alaszt\'asa}{25}\protected@file@percent }
\@writefile{toc}{\select@language{magyar} \contentsline {subsection}{\numberline {3.3.1}Kliens oldali lehet\H os\'egek}{25}\protected@file@percent }
\@writefile{toc}{\select@language{magyar} \contentsline {subsubsection}{TypeScript}{25}\protected@file@percent }
\@writefile{toc}{\select@language{magyar} \contentsline {subsubsection}{Keretrendszerek}{26}\protected@file@percent }
\@writefile{lof}{\select@language{magyar} \contentsline {figure}{\numberline {3.8}{\ignorespaces Fejleszt\H ok \'altal legkedveltebb keretrendszerek 2020-ban [10]}}{26}\protected@file@percent }
\newlabel{fig:cimer}{{3.8}{26}}
\@writefile{toc}{\select@language{magyar} \contentsline {subsubsection}{React.js}{26}\protected@file@percent }
\@writefile{toc}{\select@language{magyar} \contentsline {subsubsection}{Vue.js}{27}\protected@file@percent }
\@writefile{toc}{\select@language{magyar} \contentsline {subsubsection}{Angular/Angular.js}{27}\protected@file@percent }
\@writefile{toc}{\select@language{magyar} \contentsline {subsubsection}{Fejleszt\H o k\"ornyezetek}{27}\protected@file@percent }
\@writefile{toc}{\select@language{magyar} \contentsline {subsection}{\numberline {3.3.2}Szerver oldali lehet\H os\'egek}{28}\protected@file@percent }
\@writefile{toc}{\select@language{magyar} \contentsline {subsubsection}{PHP alap\'u keretrendszerek}{28}\protected@file@percent }
\@writefile{toc}{\select@language{magyar} \contentsline {subsubsection}{Python alap\'u keretrendszerek}{28}\protected@file@percent }
\@writefile{toc}{\select@language{magyar} \contentsline {subsubsection}{C\# alap\'u keretrendszerek}{28}\protected@file@percent }
\@writefile{toc}{\select@language{magyar} \contentsline {subsubsection}{JAVA alap\'u keretrendszerek}{29}\protected@file@percent }
\@writefile{toc}{\select@language{magyar} \contentsline {subsection}{\numberline {3.3.3}Adatb\'azis kezel\H o rendszerek}{29}\protected@file@percent }
\@writefile{toc}{\select@language{magyar} \contentsline {subsubsection}{MySQL}{29}\protected@file@percent }
\@writefile{toc}{\select@language{magyar} \contentsline {subsubsection}{MariaDB}{30}\protected@file@percent }
\@writefile{toc}{\select@language{magyar} \contentsline {subsubsection}{MongoDB}{30}\protected@file@percent }
\@writefile{toc}{\select@language{magyar} \contentsline {subsubsection}{Redis}{30}\protected@file@percent }
\@writefile{toc}{\select@language{magyar} \contentsline {subsubsection}{Oracle}{30}\protected@file@percent }
\@writefile{toc}{\select@language{magyar} \contentsline {subsection}{\numberline {3.3.4}\"Osszegz\'es, v\'alasztott fejleszt\H oi eszk\"oz\"ok, k\"ornyezetek}{30}\protected@file@percent }
\@writefile{toc}{\select@language{magyar} \contentsline {subsubsection}{V\'alasztott fejleszt\H o eszk\"oz\"ok}{30}\protected@file@percent }
\@writefile{toc}{\select@language{magyar} \contentsline {subsubsection}{Fejleszt\H ok\"ornyezetek}{31}\protected@file@percent }
\@writefile{toc}{\select@language{magyar} \contentsline {subsubsection}{Egy\'eb haszn\'alni k\IeC {\'\i }v\'ant technol\'ogi\'ak}{32}\protected@file@percent }
\@writefile{toc}{\select@language{magyar} \contentsline {section}{\numberline {3.4}Terv v\'egleges\IeC {\'\i }t\'ese}{33}\protected@file@percent }
\@writefile{toc}{\select@language{magyar} \contentsline {subsection}{\numberline {3.4.1}Tervezett modulok}{33}\protected@file@percent }
\@writefile{toc}{\select@language{magyar} \contentsline {subsubsection}{Szuperadmin}{33}\protected@file@percent }
\@writefile{toc}{\select@language{magyar} \contentsline {subsubsection}{C\'eg}{33}\protected@file@percent }
\@writefile{toc}{\select@language{magyar} \contentsline {subsubsection}{\"Ugyf\'el}{33}\protected@file@percent }
\@writefile{toc}{\select@language{magyar} \contentsline {subsubsection}{\"Uzlet}{34}\protected@file@percent }
\@writefile{toc}{\select@language{magyar} \contentsline {subsubsection}{Kassza}{34}\protected@file@percent }
\@writefile{toc}{\select@language{magyar} \contentsline {subsubsection}{Rakt\'ar}{34}\protected@file@percent }
\@writefile{toc}{\select@language{magyar} \contentsline {subsubsection}{Alapanyag}{34}\protected@file@percent }
\@writefile{toc}{\select@language{magyar} \contentsline {subsubsection}{Eszk\"oz}{34}\protected@file@percent }
\@writefile{toc}{\select@language{magyar} \contentsline {subsubsection}{Alapanyag/Eszk\"oz regisztr\'aci\'o}{34}\protected@file@percent }
\@writefile{toc}{\select@language{magyar} \contentsline {subsubsection}{Jelent\'es}{34}\protected@file@percent }
\@writefile{toc}{\select@language{magyar} \contentsline {subsection}{\numberline {3.4.2}Modulok kapcsolata}{34}\protected@file@percent }
\@writefile{toc}{\select@language{magyar} \contentsline {subsubsection}{Kapcsolatok}{35}\protected@file@percent }
\@writefile{toc}{\select@language{magyar} \contentsline {subsection}{\numberline {3.4.3}Jogosults\'agi szintekkel el\'erhet\H o funkci\'ok}{36}\protected@file@percent }
\@writefile{toc}{\select@language{magyar} \contentsline {subsubsection}{T\'aj\'ekoz\'od\'as, inform\'aci\'oszerz\'es}{36}\protected@file@percent }
\@writefile{lof}{\select@language{magyar} \contentsline {figure}{\numberline {3.9}{\ignorespaces T\'ak\'ekoz\'od\'as, inform\'aci\'oszerz\'es USE CASE diagram}}{36}\protected@file@percent }
\newlabel{fig:cimer}{{3.9}{36}}
\@writefile{toc}{\select@language{magyar} \contentsline {subsubsection}{Lek\'erdez\'es}{36}\protected@file@percent }
\@writefile{lof}{\select@language{magyar} \contentsline {figure}{\numberline {3.10}{\ignorespaces Lek\'erdez\'es USE CASE diagram}}{37}\protected@file@percent }
\newlabel{fig:cimer}{{3.10}{37}}
\@writefile{toc}{\select@language{magyar} \contentsline {subsubsection}{\'Uj elem felv\'etele}{37}\protected@file@percent }
\@writefile{toc}{\select@language{magyar} \contentsline {subsubsection}{Elemek m\'odos\IeC {\'\i }t\'asa}{37}\protected@file@percent }
\@writefile{lof}{\select@language{magyar} \contentsline {figure}{\numberline {3.11}{\ignorespaces \'Uj elem felv\'etele USE CASE diagram}}{38}\protected@file@percent }
\newlabel{fig:cimer}{{3.11}{38}}
\@writefile{lof}{\select@language{magyar} \contentsline {figure}{\numberline {3.12}{\ignorespaces Elemek m\'odos\IeC {\'\i }t\'asa USE CASE diagram}}{38}\protected@file@percent }
\newlabel{fig:cimer}{{3.12}{38}}
\@writefile{toc}{\select@language{magyar} \contentsline {subsubsection}{Elemek t\"orl\'ese}{39}\protected@file@percent }
\@writefile{lof}{\select@language{magyar} \contentsline {figure}{\numberline {3.13}{\ignorespaces Elem t\"orl\'ese USE CASE diagram}}{39}\protected@file@percent }
\newlabel{fig:cimer}{{3.13}{39}}
\@writefile{toc}{\select@language{magyar} \contentsline {subsubsection}{Statisztika megjelen\IeC {\'\i }t\'ese}{39}\protected@file@percent }
\@writefile{toc}{\select@language{magyar} \contentsline {subsubsection}{Rakt\'ari jelent\'es}{39}\protected@file@percent }
\@writefile{toc}{\select@language{magyar} \contentsline {subsubsection}{Z\'ar\'as jelent\'es}{39}\protected@file@percent }
\@writefile{lof}{\select@language{magyar} \contentsline {figure}{\numberline {3.14}{\ignorespaces Statisztika megjelen\IeC {\'\i }t\'ese USE CASE diagram}}{40}\protected@file@percent }
\newlabel{fig:cimer}{{3.14}{40}}
\@writefile{lof}{\select@language{magyar} \contentsline {figure}{\numberline {3.15}{\ignorespaces Rakt\'ari jelent\'es USE CASE diagram}}{40}\protected@file@percent }
\newlabel{fig:cimer}{{3.15}{40}}
\@writefile{lof}{\select@language{magyar} \contentsline {figure}{\numberline {3.16}{\ignorespaces Z\'ar\'as jelent\'es USE CASE diagram}}{40}\protected@file@percent }
\newlabel{fig:cimer}{{3.16}{40}}
\@writefile{toc}{\select@language{magyar} \contentsline {section}{\numberline {3.5}Backend fel\'ep\IeC {\'\i }t\'ese}{41}\protected@file@percent }
\@writefile{toc}{\select@language{magyar} \contentsline {subsubsection}{Rel\'aci\'os modellre val\'o lek\'epez\'es}{41}\protected@file@percent }
\@writefile{lof}{\select@language{magyar} \contentsline {figure}{\numberline {3.17}{\ignorespaces Rel\'aci\'os modell}}{42}\protected@file@percent }
\newlabel{fig:cimer}{{3.17}{42}}
\@writefile{toc}{\select@language{magyar} \contentsline {subsubsection}{Hib\'ak elker\"ul\'ese}{43}\protected@file@percent }
\@writefile{toc}{\select@language{magyar} \contentsline {subsection}{\numberline {3.5.1}Probl\'em\'ak, egyedi megold\'asok}{43}\protected@file@percent }
\@setckpt{fejezetek/dokumentacio}{
\setcounter{page}{45}
\setcounter{equation}{0}
\setcounter{enumi}{0}
\setcounter{enumii}{0}
\setcounter{enumiii}{0}
\setcounter{enumiv}{0}
\setcounter{footnote}{0}
\setcounter{mpfootnote}{0}
\setcounter{part}{0}
\setcounter{chapter}{3}
\setcounter{section}{5}
\setcounter{subsection}{1}
\setcounter{subsubsection}{0}
\setcounter{paragraph}{0}
\setcounter{subparagraph}{0}
\setcounter{figure}{17}
\setcounter{table}{0}
\setcounter{parentequation}{0}
\setcounter{footnote@add}{0}
\setcounter{footnote@ch}{0}
\setcounter{theorem}{0}
\setcounter{prooF}{0}
}
