\relax 
\@writefile{toc}{\select@language{magyar} \contentsline {chapter}{\numberline {2}Weboldal optimaliz\'al\'as}{9}\protected@file@percent }
\@writefile{lof}{\select@language{magyar} \addvspace {10\p@ }}
\@writefile{lot}{\select@language{magyar} \addvspace {10\p@ }}
\newlabel{Chap:tema}{{2}{9}}
\@writefile{toc}{\select@language{magyar} \contentsline {section}{\numberline {2.1}Optimaliz\'al\'as fejl\H od\'est\"ort\'enete}{9}\protected@file@percent }
\@writefile{toc}{\select@language{magyar} \contentsline {section}{\numberline {2.2}Webalkalmaz\'asok optimaliz\'al\'asa }{9}\protected@file@percent }
\@writefile{toc}{\select@language{magyar} \contentsline {section}{\numberline {2.3}Keres\H ooptimaliz\'al\'as }{10}\protected@file@percent }
\@writefile{toc}{\select@language{magyar} \contentsline {subsection}{\numberline {2.3.1}H\'atr\'altat\'o t\'enyez\H ok}{10}\protected@file@percent }
\@writefile{toc}{\select@language{magyar} \contentsline {subsection}{\numberline {2.3.2}Praktik\'ak a magasabb rangsorol\'as \'erdek\'eben}{11}\protected@file@percent }
\@writefile{toc}{\select@language{magyar} \contentsline {section}{\numberline {2.4}Teljes\IeC {\'\i }tm\'eny optimaliz\'al\'asa}{11}\protected@file@percent }
\@writefile{lof}{\select@language{magyar} \contentsline {figure}{\numberline {2.1}{\ignorespaces Host nev\'eben tal\'alhat\'o kulcsszavak \'es a SERP ar\'anya [1 27.o.]}}{12}\protected@file@percent }
\newlabel{fig:cimer}{{2.1}{12}}
\@writefile{toc}{\select@language{magyar} \contentsline {subsection}{\numberline {2.4.1}Sebess\'eg }{12}\protected@file@percent }
\@writefile{thm}{\select@language{magyar} \contentsline {definition}{{definíció}{2.{1}}{}}{12}\protected@file@percent }
\@writefile{thm}{\select@language{magyar} \contentsline {definition}{{definíció}{2.{2}}{}}{12}\protected@file@percent }
\@writefile{lof}{\select@language{magyar} \contentsline {figure}{\numberline {2.2}{\ignorespaces A ,,Call to Action" konferencia m\'er\'esi eredm\'enye [6]}}{13}\protected@file@percent }
\newlabel{fig:stat}{{2.2}{13}}
\@writefile{toc}{\select@language{magyar} \contentsline {section}{\numberline {2.5}Sebess\'eg optimaliz\'al\'as }{13}\protected@file@percent }
\@writefile{toc}{\select@language{magyar} \contentsline {subsection}{\numberline {2.5.1}Teljes\IeC {\'\i }tm\'eny n\"ovel\H o praktik\'ak}{13}\protected@file@percent }
\@writefile{toc}{\select@language{magyar} \contentsline {section}{\numberline {2.6}Megval\'os\IeC {\'\i }that\'os\'ag, konkl\'uzi\'o}{15}\protected@file@percent }
\@setckpt{fejezetek/elmelet}{
\setcounter{page}{16}
\setcounter{equation}{0}
\setcounter{enumi}{0}
\setcounter{enumii}{0}
\setcounter{enumiii}{0}
\setcounter{enumiv}{0}
\setcounter{footnote}{0}
\setcounter{mpfootnote}{0}
\setcounter{part}{0}
\setcounter{chapter}{2}
\setcounter{section}{6}
\setcounter{subsection}{0}
\setcounter{subsubsection}{0}
\setcounter{paragraph}{0}
\setcounter{subparagraph}{0}
\setcounter{figure}{2}
\setcounter{table}{0}
\setcounter{parentequation}{0}
\setcounter{footnote@add}{0}
\setcounter{footnote@ch}{0}
\setcounter{theorem}{2}
\setcounter{prooF}{0}
}
