\relax 
\@writefile{toc}{\select@language{magyar} \contentsline {chapter}{Adathordoz\'o haszn\'alati \'utmutat\'o}{47}\protected@file@percent }
\@setckpt{hasznalat/hasznalat}{
\setcounter{page}{48}
\setcounter{equation}{0}
\setcounter{enumi}{0}
\setcounter{enumii}{0}
\setcounter{enumiii}{0}
\setcounter{enumiv}{13}
\setcounter{footnote}{0}
\setcounter{mpfootnote}{0}
\setcounter{part}{0}
\setcounter{chapter}{4}
\setcounter{section}{0}
\setcounter{subsection}{0}
\setcounter{subsubsection}{0}
\setcounter{paragraph}{0}
\setcounter{subparagraph}{0}
\setcounter{figure}{0}
\setcounter{table}{0}
\setcounter{parentequation}{0}
\setcounter{footnote@add}{0}
\setcounter{footnote@ch}{0}
\setcounter{theorem}{0}
\setcounter{prooF}{0}
}
